{
   "type": "oracle",
   "host": "10.141.13.11",
   "username": "horus",
   "password": "horusdsv#123",
   "sid": "horusdsv",
   "port": 1521,
   "synchronize": false,
   "logging": true,
   "database" : "horusdsv",
   "entities": [
      "./lib/**/*entity.js", "./src/**/*.entity.ts", "./dist/**/*.entity.js"
   ],
   "migrations": [
      "lib/migration/*.js"
   ],
   "subscribers": [
      "lib/subscriber/*.js"
   ]
}